com\sudhir\boot\service\UserServiceImpl.class
com\sudhir\boot\service\UserService.class
com\sudhir\boot\SpringBootDataJpaApplication.class
com\sudhir\boot\SwaggerConfig.class
com\sudhir\boot\model\Users.class
com\sudhir\boot\model\SpringException.class
com\sudhir\boot\repository\UserRepository.class
com\sudhir\boot\controller\RecursiveFileDisplay.class
com\sudhir\boot\controller\UserController.class
